]0;IPython: lilian_besson/SMPyBandits.gitReading argument from command line, importing the configuration module from arg = configuration_nonstationary (module = configuration_nonstationary in directory )...

Using Upsilon_T = 4 break-points (time when at least one arm changes), and C_T = 4 change-points (number of changes of all arms).
For this problem, we compute the Delta^change and Delta^opt...
min_change_on_mean = 0.3
min_optimality_gap = 0.09999999999999998
DELTA_for_MUCB = 0.1
EPSILON_for_CUSUM = 0.1
Loaded experiments configuration from 'configuration_nonstationnary.py' :
configuration['policies'] = [{'archtype': <class 'Policies.OracleSequentiallyRestartPolicy.OracleSequentiallyRestartPolicy'>, 'params': {'listOfMeans': [[0.3, 0.5, 0.9], [0.3, 0.2, 0.9], [0.3, 0.2, 0.1], [0.7, 0.2, 0.1], [0.7, 0.5, 0.1]], 'policy': <class 'Policies.UCB.UCB'>, 'changePoints': [0, 1000, 2000, 3000, 4000], 'reset_for_all_change': True, 'reset_for_suboptimal_change': False}}, {'archtype': <class 'Policies.OracleSequentiallyRestartPolicy.OracleSequentiallyRestartPolicy'>, 'params': {'listOfMeans': [[0.3, 0.5, 0.9], [0.3, 0.2, 0.9], [0.3, 0.2, 0.1], [0.7, 0.2, 0.1], [0.7, 0.5, 0.1]], 'policy': <class 'Policies.klUCB.klUCB'>, 'changePoints': [0, 1000, 2000, 3000, 4000], 'reset_for_all_change': True, 'reset_for_suboptimal_change': False}}, {'archtype': <class 'Policies.Exp3S.Exp3S'>, 'params': {'gamma0': 10, 'max_nb_random_events': 4, 'horizon': 5000, 'alpha0': 100}}, {'archtype': <class 'Policies.Exp3S.Exp3S'>, 'params': {'gamma0': 1, 'max_nb_random_events': 4, 'horizon': 5000, 'alpha0': 100}}, {'archtype': <class 'Policies.Exp3S.Exp3S'>, 'params': {'gamma0': 0.01, 'max_nb_random_events': 4, 'horizon': 5000, 'alpha0': 100}}, {'archtype': <class 'Policies.Exp3S.Exp3S'>, 'params': {'gamma0': 10, 'max_nb_random_events': 4, 'horizon': 5000, 'alpha0': 50}}, {'archtype': <class 'Policies.Exp3S.Exp3S'>, 'params': {'gamma0': 1, 'max_nb_random_events': 4, 'horizon': 5000, 'alpha0': 50}}, {'archtype': <class 'Policies.Exp3S.Exp3S'>, 'params': {'gamma0': 0.01, 'max_nb_random_events': 4, 'horizon': 5000, 'alpha0': 50}}, {'archtype': <class 'Policies.Exp3S.Exp3S'>, 'params': {'gamma0': 10, 'max_nb_random_events': 4, 'horizon': 5000, 'alpha0': 1}}, {'archtype': <class 'Policies.Exp3S.Exp3S'>, 'params': {'gamma0': 1, 'max_nb_random_events': 4, 'horizon': 5000, 'alpha0': 1}}, {'archtype': <class 'Policies.Exp3S.Exp3S'>, 'params': {'gamma0': 0.01, 'max_nb_random_events': 4, 'horizon': 5000, 'alpha0': 1}}, {'archtype': <class 'Policies.Exp3R.Exp3R'>, 'params': {'horizon': 5000}}, {'archtype': <class 'Policies.Monitored_UCB.Monitored_IndexPolicy'>, 'params': {'w': 150, 'policy': <class 'Policies.UCB.UCB'>, 'horizon': 5000, 'delta': 0.1}}, {'archtype': <class 'Policies.Monitored_UCB.Monitored_IndexPolicy'>, 'params': {'w': 150, 'policy': <class 'Policies.klUCB.klUCB'>, 'horizon': 5000, 'delta': 0.1}}, {'archtype': <class 'Policies.CUSUM_UCB.CUSUM_IndexPolicy'>, 'params': {'lazy_detect_change_only_x_steps': 20, 'policy': <class 'Policies.UCB.UCB'>, 'horizon': 5000, 'max_nb_random_events': 4, 'epsilon': 0.1}}, {'archtype': <class 'Policies.CUSUM_UCB.CUSUM_IndexPolicy'>, 'params': {'lazy_detect_change_only_x_steps': 20, 'policy': <class 'Policies.klUCB.klUCB'>, 'horizon': 5000, 'max_nb_random_events': 4, 'epsilon': 0.1}}, {'archtype': <class 'Policies.GLR_UCB.GaussianGLR_IndexPolicy_WithDeterministicExploration'>, 'params': {'lazy_detect_change_only_x_steps': 10, 'per_arm_restart': True, 'policy': <class 'Policies.klUCB.klUCB'>, 'horizon': 5000, 'max_nb_random_events': 4, 'lazy_try_value_s_only_x_steps': 10}}, {'archtype': <class 'Policies.GLR_UCB.BernoulliGLR_IndexPolicy_WithDeterministicExploration'>, 'params': {'lazy_detect_change_only_x_steps': 10, 'per_arm_restart': True, 'policy': <class 'Policies.klUCB_forGLR.klUCB_forGLR'>, 'delta': 0.00408248290463863, 'lazy_try_value_s_only_x_steps': 10, 'alpha0': 0.007148647364956354}, 'change_label': 'GLR-klUCB(Local, $\\alpha_0=1$)'}, {'archtype': <class 'Policies.GLR_UCB.BernoulliGLR_IndexPolicy_WithDeterministicExploration'>, 'params': {'lazy_detect_change_only_x_steps': 10, 'per_arm_restart': False, 'policy': <class 'Policies.klUCB_forGLR.klUCB_forGLR'>, 'delta': 0.007071067811865475, 'lazy_try_value_s_only_x_steps': 10, 'alpha0': 0.00412727348049926}, 'change_label': 'GLR-klUCB(Global, $\\alpha_0=1$)'}]
configuration['environment'] = [{'params': {'listOfMeans': [[0.3, 0.5, 0.9], [0.3, 0.2, 0.9], [0.3, 0.2, 0.1], [0.7, 0.2, 0.1], [0.7, 0.5, 0.1]], 'changePoints': [0, 1000, 2000, 3000, 4000]}, 'arm_type': <class 'Arms.Bernoulli.Bernoulli'>}]
Warning: Non interactive simulations, switching from 'TkAgg' backend to 'agg'...
plots/ is already a directory here...
Number of policies in this comparison: 19
Time horizon: 5000
Number of repetitions: 1000
Sampling rate for plotting, delta_t_plot: 1
Number of jobs for parallelization: 12
Using this dictionary to create a new environment:
 {'params': {'listOfMeans': [[0.3, 0.5, 0.9], [0.3, 0.2, 0.9], [0.3, 0.2, 0.1], [0.7, 0.2, 0.1], [0.7, 0.5, 0.1]], 'changePoints': [0, 1000, 2000, 3000, 4000]}, 'arm_type': <class 'Arms.Bernoulli.Bernoulli'>}
  Special MAB problem, with arm (possibly) changing at every time step, read from a dictionnary 'configuration' = {'params': {'listOfMeans': [[0.3, 0.5, 0.9], [0.3, 0.2, 0.9], [0.3, 0.2, 0.1], [0.7, 0.2, 0.1], [0.7, 0.5, 0.1]], 'changePoints': [0, 1000, 2000, 3000, 4000]}, 'arm_type': <class 'Arms.Bernoulli.Bernoulli'>} ...
 - with 'arm_type' = <class 'Arms.Bernoulli.Bernoulli'>
 - with 'params' = {'listOfMeans': [[0.3, 0.5, 0.9], [0.3, 0.2, 0.9], [0.3, 0.2, 0.1], [0.7, 0.2, 0.1], [0.7, 0.5, 0.1]], 'changePoints': [0, 1000, 2000, 3000, 4000]}
 - with 'listOfMeans' = [[0.3 0.5 0.9]
 [0.3 0.2 0.9]
 [0.3 0.2 0.1]
 [0.7 0.2 0.1]
 [0.7 0.5 0.1]]
 - with 'changePoints' = [0, 1000, 2000, 3000, 4000]


 ==> Creating the dynamic arms ...
   - with 'nbArms' = 3
   - with 'arms' = [B(0.3), B(0.5), B(0.9)]
 - Initial draw of 'means' = [0.3 0.5 0.9]
Number of environments to try: 1


Evaluating environment: PieceWiseStationaryMAB(nbArms: 3, arms: [B(0.3), B(0.5), B(0.9)])
- Adding policy #1 = {'archtype': <class 'Policies.OracleSequentiallyRestartPolicy.OracleSequentiallyRestartPolicy'>, 'params': {'listOfMeans': [[0.3, 0.5, 0.9], [0.3, 0.2, 0.9], [0.3, 0.2, 0.1], [0.7, 0.2, 0.1], [0.7, 0.5, 0.1]], 'policy': <class 'Policies.UCB.UCB'>, 'changePoints': [0, 1000, 2000, 3000, 4000], 'reset_for_all_change': True, 'reset_for_suboptimal_change': False}} ...
  Creating this policy from a dictionnary 'self.cfg['policies'][0]' = {'archtype': <class 'Policies.OracleSequentiallyRestartPolicy.OracleSequentiallyRestartPolicy'>, 'params': {'listOfMeans': [[0.3, 0.5, 0.9], [0.3, 0.2, 0.9], [0.3, 0.2, 0.1], [0.7, 0.2, 0.1], [0.7, 0.5, 0.1]], 'policy': <class 'Policies.UCB.UCB'>, 'changePoints': [0, 1000, 2000, 3000, 4000], 'reset_for_all_change': True, 'reset_for_suboptimal_change': False}} ...
Info: creating a new policy Oracle-UCB, with change points = [[1000, 2000, 3000, 4000], [1000, 2000, 3000, 4000], [1000, 2000, 3000, 4000]]...
- Adding policy #2 = {'archtype': <class 'Policies.OracleSequentiallyRestartPolicy.OracleSequentiallyRestartPolicy'>, 'params': {'listOfMeans': [[0.3, 0.5, 0.9], [0.3, 0.2, 0.9], [0.3, 0.2, 0.1], [0.7, 0.2, 0.1], [0.7, 0.5, 0.1]], 'policy': <class 'Policies.klUCB.klUCB'>, 'changePoints': [0, 1000, 2000, 3000, 4000], 'reset_for_all_change': True, 'reset_for_suboptimal_change': False}} ...
  Creating this policy from a dictionnary 'self.cfg['policies'][1]' = {'archtype': <class 'Policies.OracleSequentiallyRestartPolicy.OracleSequentiallyRestartPolicy'>, 'params': {'listOfMeans': [[0.3, 0.5, 0.9], [0.3, 0.2, 0.9], [0.3, 0.2, 0.1], [0.7, 0.2, 0.1], [0.7, 0.5, 0.1]], 'policy': <class 'Policies.klUCB.klUCB'>, 'changePoints': [0, 1000, 2000, 3000, 4000], 'reset_for_all_change': True, 'reset_for_suboptimal_change': False}} ...
Info: creating a new policy Oracle-klUCB, with change points = [[1000, 2000, 3000, 4000], [1000, 2000, 3000, 4000], [1000, 2000, 3000, 4000]]...
- Adding policy #3 = {'archtype': <class 'Policies.Exp3S.Exp3S'>, 'params': {'gamma0': 10, 'max_nb_random_events': 4, 'horizon': 5000, 'alpha0': 100}} ...
  Creating this policy from a dictionnary 'self.cfg['policies'][2]' = {'archtype': <class 'Policies.Exp3S.Exp3S'>, 'params': {'gamma0': 10, 'max_nb_random_events': 4, 'horizon': 5000, 'alpha0': 100}} ...
For Exp3S: by using the formula with known T and Upsilon_T, gamma = 0.11991666089993842...
For Exp3S: by using the formula with known T, alpha = 0.0002...
- Adding policy #4 = {'archtype': <class 'Policies.Exp3S.Exp3S'>, 'params': {'gamma0': 1, 'max_nb_random_events': 4, 'horizon': 5000, 'alpha0': 100}} ...
  Creating this policy from a dictionnary 'self.cfg['policies'][3]' = {'archtype': <class 'Policies.Exp3S.Exp3S'>, 'params': {'gamma0': 1, 'max_nb_random_events': 4, 'horizon': 5000, 'alpha0': 100}} ...
For Exp3S: by using the formula with known T and Upsilon_T, gamma = 0.11991666089993842...
For Exp3S: by using the formula with known T, alpha = 0.0002...
- Adding policy #5 = {'archtype': <class 'Policies.Exp3S.Exp3S'>, 'params': {'gamma0': 0.01, 'max_nb_random_events': 4, 'horizon': 5000, 'alpha0': 100}} ...
  Creating this policy from a dictionnary 'self.cfg['policies'][4]' = {'archtype': <class 'Policies.Exp3S.Exp3S'>, 'params': {'gamma0': 0.01, 'max_nb_random_events': 4, 'horizon': 5000, 'alpha0': 100}} ...
For Exp3S: by using the formula with known T and Upsilon_T, gamma = 0.11991666089993842...
For Exp3S: by using the formula with known T, alpha = 0.0002...
- Adding policy #6 = {'archtype': <class 'Policies.Exp3S.Exp3S'>, 'params': {'gamma0': 10, 'max_nb_random_events': 4, 'horizon': 5000, 'alpha0': 50}} ...
  Creating this policy from a dictionnary 'self.cfg['policies'][5]' = {'archtype': <class 'Policies.Exp3S.Exp3S'>, 'params': {'gamma0': 10, 'max_nb_random_events': 4, 'horizon': 5000, 'alpha0': 50}} ...
For Exp3S: by using the formula with known T and Upsilon_T, gamma = 0.11991666089993842...
For Exp3S: by using the formula with known T, alpha = 0.0002...
- Adding policy #7 = {'archtype': <class 'Policies.Exp3S.Exp3S'>, 'params': {'gamma0': 1, 'max_nb_random_events': 4, 'horizon': 5000, 'alpha0': 50}} ...
  Creating this policy from a dictionnary 'self.cfg['policies'][6]' = {'archtype': <class 'Policies.Exp3S.Exp3S'>, 'params': {'gamma0': 1, 'max_nb_random_events': 4, 'horizon': 5000, 'alpha0': 50}} ...
For Exp3S: by using the formula with known T and Upsilon_T, gamma = 0.11991666089993842...
For Exp3S: by using the formula with known T, alpha = 0.0002...
- Adding policy #8 = {'archtype': <class 'Policies.Exp3S.Exp3S'>, 'params': {'gamma0': 0.01, 'max_nb_random_events': 4, 'horizon': 5000, 'alpha0': 50}} ...
  Creating this policy from a dictionnary 'self.cfg['policies'][7]' = {'archtype': <class 'Policies.Exp3S.Exp3S'>, 'params': {'gamma0': 0.01, 'max_nb_random_events': 4, 'horizon': 5000, 'alpha0': 50}} ...
For Exp3S: by using the formula with known T and Upsilon_T, gamma = 0.11991666089993842...
For Exp3S: by using the formula with known T, alpha = 0.0002...
- Adding policy #9 = {'archtype': <class 'Policies.Exp3S.Exp3S'>, 'params': {'gamma0': 10, 'max_nb_random_events': 4, 'horizon': 5000, 'alpha0': 1}} ...
  Creating this policy from a dictionnary 'self.cfg['policies'][8]' = {'archtype': <class 'Policies.Exp3S.Exp3S'>, 'params': {'gamma0': 10, 'max_nb_random_events': 4, 'horizon': 5000, 'alpha0': 1}} ...
For Exp3S: by using the formula with known T and Upsilon_T, gamma = 0.11991666089993842...
For Exp3S: by using the formula with known T, alpha = 0.0002...
- Adding policy #10 = {'archtype': <class 'Policies.Exp3S.Exp3S'>, 'params': {'gamma0': 1, 'max_nb_random_events': 4, 'horizon': 5000, 'alpha0': 1}} ...
  Creating this policy from a dictionnary 'self.cfg['policies'][9]' = {'archtype': <class 'Policies.Exp3S.Exp3S'>, 'params': {'gamma0': 1, 'max_nb_random_events': 4, 'horizon': 5000, 'alpha0': 1}} ...
For Exp3S: by using the formula with known T and Upsilon_T, gamma = 0.11991666089993842...
For Exp3S: by using the formula with known T, alpha = 0.0002...
- Adding policy #11 = {'archtype': <class 'Policies.Exp3S.Exp3S'>, 'params': {'gamma0': 0.01, 'max_nb_random_events': 4, 'horizon': 5000, 'alpha0': 1}} ...
  Creating this policy from a dictionnary 'self.cfg['policies'][10]' = {'archtype': <class 'Policies.Exp3S.Exp3S'>, 'params': {'gamma0': 0.01, 'max_nb_random_events': 4, 'horizon': 5000, 'alpha0': 1}} ...
For Exp3S: by using the formula with known T and Upsilon_T, gamma = 0.11991666089993842...
For Exp3S: by using the formula with known T, alpha = 0.0002...
- Adding policy #12 = {'archtype': <class 'Policies.Exp3R.Exp3R'>, 'params': {'horizon': 5000}} ...
  Creating this policy from a dictionnary 'self.cfg['policies'][11]' = {'archtype': <class 'Policies.Exp3R.Exp3R'>, 'params': {'horizon': 5000}} ...
Warning: the policy Exp3R($T=5000$, $c=3.29$, $\alpha=0.01$) tried to use default value of gamma = 0.07492833818409521 but could not set attribute self.policy.gamma to gamma (maybe it's using an Exp3 with a non-constant value of gamma).
- Adding policy #13 = {'archtype': <class 'Policies.Monitored_UCB.Monitored_IndexPolicy'>, 'params': {'w': 150, 'policy': <class 'Policies.UCB.UCB'>, 'horizon': 5000, 'delta': 0.1}} ...
  Creating this policy from a dictionnary 'self.cfg['policies'][12]' = {'archtype': <class 'Policies.Monitored_UCB.Monitored_IndexPolicy'>, 'params': {'w': 150, 'policy': <class 'Policies.UCB.UCB'>, 'horizon': 5000, 'delta': 0.1}} ...
- Adding policy #14 = {'archtype': <class 'Policies.Monitored_UCB.Monitored_IndexPolicy'>, 'params': {'w': 150, 'policy': <class 'Policies.klUCB.klUCB'>, 'horizon': 5000, 'delta': 0.1}} ...
  Creating this policy from a dictionnary 'self.cfg['policies'][13]' = {'archtype': <class 'Policies.Monitored_UCB.Monitored_IndexPolicy'>, 'params': {'w': 150, 'policy': <class 'Policies.klUCB.klUCB'>, 'horizon': 5000, 'delta': 0.1}} ...
- Adding policy #15 = {'archtype': <class 'Policies.CUSUM_UCB.CUSUM_IndexPolicy'>, 'params': {'lazy_detect_change_only_x_steps': 20, 'policy': <class 'Policies.UCB.UCB'>, 'horizon': 5000, 'max_nb_random_events': 4, 'epsilon': 0.1}} ...
  Creating this policy from a dictionnary 'self.cfg['policies'][14]' = {'archtype': <class 'Policies.CUSUM_UCB.CUSUM_IndexPolicy'>, 'params': {'lazy_detect_change_only_x_steps': 20, 'policy': <class 'Policies.UCB.UCB'>, 'horizon': 5000, 'max_nb_random_events': 4, 'epsilon': 0.1}} ...
- Adding policy #16 = {'archtype': <class 'Policies.CUSUM_UCB.CUSUM_IndexPolicy'>, 'params': {'lazy_detect_change_only_x_steps': 20, 'policy': <class 'Policies.klUCB.klUCB'>, 'horizon': 5000, 'max_nb_random_events': 4, 'epsilon': 0.1}} ...
  Creating this policy from a dictionnary 'self.cfg['policies'][15]' = {'archtype': <class 'Policies.CUSUM_UCB.CUSUM_IndexPolicy'>, 'params': {'lazy_detect_change_only_x_steps': 20, 'policy': <class 'Policies.klUCB.klUCB'>, 'horizon': 5000, 'max_nb_random_events': 4, 'epsilon': 0.1}} ...
- Adding policy #17 = {'archtype': <class 'Policies.GLR_UCB.GaussianGLR_IndexPolicy_WithDeterministicExploration'>, 'params': {'lazy_detect_change_only_x_steps': 10, 'per_arm_restart': True, 'policy': <class 'Policies.klUCB.klUCB'>, 'horizon': 5000, 'max_nb_random_events': 4, 'lazy_try_value_s_only_x_steps': 10}} ...
  Creating this policy from a dictionnary 'self.cfg['policies'][16]' = {'archtype': <class 'Policies.GLR_UCB.GaussianGLR_IndexPolicy_WithDeterministicExploration'>, 'params': {'lazy_detect_change_only_x_steps': 10, 'per_arm_restart': True, 'policy': <class 'Policies.klUCB.klUCB'>, 'horizon': 5000, 'max_nb_random_events': 4, 'lazy_try_value_s_only_x_steps': 10}} ...
Error: bound Upsilon_T = 4 should be smaller than horizon T = 5000...
DEBUG: smart_delta_from_T_UpsilonT: horizon = 5000, max_nb_random_events = 4, gives delta = 3.162277660168379...
DEBUG: smart_alpha_from_T_UpsilonT: horizon = 5000, max_nb_random_events = 4, gives alpha = 0.01429729472991271...
- Adding policy #18 = {'archtype': <class 'Policies.GLR_UCB.BernoulliGLR_IndexPolicy_WithDeterministicExploration'>, 'params': {'lazy_detect_change_only_x_steps': 10, 'per_arm_restart': True, 'policy': <class 'Policies.klUCB_forGLR.klUCB_forGLR'>, 'delta': 0.00408248290463863, 'lazy_try_value_s_only_x_steps': 10, 'alpha0': 0.007148647364956354}, 'change_label': 'GLR-klUCB(Local, $\\alpha_0=1$)'} ...
  Creating this policy from a dictionnary 'self.cfg['policies'][17]' = {'archtype': <class 'Policies.GLR_UCB.BernoulliGLR_IndexPolicy_WithDeterministicExploration'>, 'params': {'lazy_detect_change_only_x_steps': 10, 'per_arm_restart': True, 'policy': <class 'Policies.klUCB_forGLR.klUCB_forGLR'>, 'delta': 0.00408248290463863, 'lazy_try_value_s_only_x_steps': 10, 'alpha0': 0.007148647364956354}, 'change_label': 'GLR-klUCB(Local, $\\alpha_0=1$)'} ...
- Adding policy #19 = {'archtype': <class 'Policies.GLR_UCB.BernoulliGLR_IndexPolicy_WithDeterministicExploration'>, 'params': {'lazy_detect_change_only_x_steps': 10, 'per_arm_restart': False, 'policy': <class 'Policies.klUCB_forGLR.klUCB_forGLR'>, 'delta': 0.007071067811865475, 'lazy_try_value_s_only_x_steps': 10, 'alpha0': 0.00412727348049926}, 'change_label': 'GLR-klUCB(Global, $\\alpha_0=1$)'} ...
  Creating this policy from a dictionnary 'self.cfg['policies'][18]' = {'archtype': <class 'Policies.GLR_UCB.BernoulliGLR_IndexPolicy_WithDeterministicExploration'>, 'params': {'lazy_detect_change_only_x_steps': 10, 'per_arm_restart': False, 'policy': <class 'Policies.klUCB_forGLR.klUCB_forGLR'>, 'delta': 0.007071067811865475, 'lazy_try_value_s_only_x_steps': 10, 'alpha0': 0.00412727348049926}, 'change_label': 'GLR-klUCB(Global, $\\alpha_0=1$)'} ...



- Evaluating policy #1/19: Oracle-UCB ...

New means vector = [0.3 0.5 0.9], best arm(s) = [2], at time t = 0 ...

New means vector = [0.3 0.2 0.9], best arm(s) = [2], at time t = 1000 ...

New means vector = [0.3 0.2 0.1], best arm(s) = [0], at time t = 2000 ...

New means vector = [0.7 0.2 0.1], best arm(s) = [0], at time t = 3000 ...

New means vector = [0.7 0.5 0.1], best arm(s) = [0], at time t = 4000 ...

Estimated order by the policy Oracle-UCB after 5000 steps: [1 2 0] ...
  ==> Optimal arm identification: 100.00% (relative success)...
  ==> Mean distance from optimal ordering: 38.89% (relative success)...



- Evaluating policy #2/19: Oracle-klUCB ...

New means vector = [0.3 0.5 0.9], best arm(s) = [2], at time t = 0 ...

New means vector = [0.3 0.2 0.9], best arm(s) = [2], at time t = 1000 ...

New means vector = [0.3 0.2 0.1], best arm(s) = [0], at time t = 2000 ...

New means vector = [0.7 0.2 0.1], best arm(s) = [0], at time t = 3000 ...

New means vector = [0.7 0.5 0.1], best arm(s) = [0], at time t = 4000 ...

Estimated order by the policy Oracle-klUCB after 5000 steps: [1 2 0] ...
  ==> Optimal arm identification: 100.00% (relative success)...
  ==> Mean distance from optimal ordering: 38.89% (relative success)...



- Evaluating policy #3/19: Exp3.S($T=5000$, $\Upsilon_T=4$, $\alpha=0.02$, $\gamma=1$) ...

New means vector = [0.3 0.5 0.9], best arm(s) = [2], at time t = 0 ...

New means vector = [0.3 0.2 0.9], best arm(s) = [2], at time t = 1000 ...

New means vector = [0.3 0.2 0.1], best arm(s) = [0], at time t = 2000 ...

New means vector = [0.7 0.2 0.1], best arm(s) = [0], at time t = 3000 ...

New means vector = [0.7 0.5 0.1], best arm(s) = [0], at time t = 4000 ...

Estimated order by the policy Exp3.S($T=5000$, $\Upsilon_T=4$, $\alpha=0.02$, $\gamma=1$) after 5000 steps: [0 1 2] ...
  ==> Optimal arm identification: 14.29% (relative success)...
  ==> Mean distance from optimal ordering: 100.00% (relative success)...



- Evaluating policy #4/19: Exp3.S($T=5000$, $\Upsilon_T=4$, $\alpha=0.02$, $\gamma=0.119917$) ...

New means vector = [0.3 0.5 0.9], best arm(s) = [2], at time t = 0 ...

New means vector = [0.3 0.2 0.9], best arm(s) = [2], at time t = 1000 ...

New means vector = [0.3 0.2 0.1], best arm(s) = [0], at time t = 2000 ...

New means vector = [0.7 0.2 0.1], best arm(s) = [0], at time t = 3000 ...

New means vector = [0.7 0.5 0.1], best arm(s) = [0], at time t = 4000 ...

Estimated order by the policy Exp3.S($T=5000$, $\Upsilon_T=4$, $\alpha=0.02$, $\gamma=0.119917$) after 5000 steps: [1 2 0] ...
  ==> Optimal arm identification: 100.00% (relative success)...
  ==> Mean distance from optimal ordering: 38.89% (relative success)...



- Evaluating policy #5/19: Exp3.S($T=5000$, $\Upsilon_T=4$, $\alpha=0.02$, $\gamma=0.00119917$) ...

New means vector = [0.3 0.5 0.9], best arm(s) = [2], at time t = 0 ...

New means vector = [0.3 0.2 0.9], best arm(s) = [2], at time t = 1000 ...

New means vector = [0.3 0.2 0.1], best arm(s) = [0], at time t = 2000 ...

New means vector = [0.7 0.2 0.1], best arm(s) = [0], at time t = 3000 ...

New means vector = [0.7 0.5 0.1], best arm(s) = [0], at time t = 4000 ...

Estimated order by the policy Exp3.S($T=5000$, $\Upsilon_T=4$, $\alpha=0.02$, $\gamma=0.00119917$) after 5000 steps: [2 1 0] ...
  ==> Optimal arm identification: 100.00% (relative success)...
  ==> Mean distance from optimal ordering: 22.22% (relative success)...



- Evaluating policy #6/19: Exp3.S($T=5000$, $\Upsilon_T=4$, $\alpha=0.01$, $\gamma=1$) ...

New means vector = [0.3 0.5 0.9], best arm(s) = [2], at time t = 0 ...

New means vector = [0.3 0.2 0.9], best arm(s) = [2], at time t = 1000 ...

New means vector = [0.3 0.2 0.1], best arm(s) = [0], at time t = 2000 ...

New means vector = [0.7 0.2 0.1], best arm(s) = [0], at time t = 3000 ...

New means vector = [0.7 0.5 0.1], best arm(s) = [0], at time t = 4000 ...

Estimated order by the policy Exp3.S($T=5000$, $\Upsilon_T=4$, $\alpha=0.01$, $\gamma=1$) after 5000 steps: [0 1 2] ...
  ==> Optimal arm identification: 14.29% (relative success)...
  ==> Mean distance from optimal ordering: 100.00% (relative success)...



- Evaluating policy #7/19: Exp3.S($T=5000$, $\Upsilon_T=4$, $\alpha=0.01$, $\gamma=0.119917$) ...

New means vector = [0.3 0.5 0.9], best arm(s) = [2], at time t = 0 ...

New means vector = [0.3 0.2 0.9], best arm(s) = [2], at time t = 1000 ...

New means vector = [0.3 0.2 0.1], best arm(s) = [0], at time t = 2000 ...

New means vector = [0.7 0.2 0.1], best arm(s) = [0], at time t = 3000 ...

New means vector = [0.7 0.5 0.1], best arm(s) = [0], at time t = 4000 ...

Estimated order by the policy Exp3.S($T=5000$, $\Upsilon_T=4$, $\alpha=0.01$, $\gamma=0.119917$) after 5000 steps: [1 2 0] ...
  ==> Optimal arm identification: 100.00% (relative success)...
  ==> Mean distance from optimal ordering: 38.89% (relative success)...



- Evaluating policy #8/19: Exp3.S($T=5000$, $\Upsilon_T=4$, $\alpha=0.01$, $\gamma=0.00119917$) ...

New means vector = [0.3 0.5 0.9], best arm(s) = [2], at time t = 0 ...

New means vector = [0.3 0.2 0.9], best arm(s) = [2], at time t = 1000 ...

New means vector = [0.3 0.2 0.1], best arm(s) = [0], at time t = 2000 ...

New means vector = [0.7 0.2 0.1], best arm(s) = [0], at time t = 3000 ...

New means vector = [0.7 0.5 0.1], best arm(s) = [0], at time t = 4000 ...

Estimated order by the policy Exp3.S($T=5000$, $\Upsilon_T=4$, $\alpha=0.01$, $\gamma=0.00119917$) after 5000 steps: [1 0 2] ...
  ==> Optimal arm identification: 14.29% (relative success)...
  ==> Mean distance from optimal ordering: 61.11% (relative success)...



- Evaluating policy #9/19: Exp3.S($T=5000$, $\Upsilon_T=4$, $\alpha=0.0002$, $\gamma=1$) ...

New means vector = [0.3 0.5 0.9], best arm(s) = [2], at time t = 0 ...

New means vector = [0.3 0.2 0.9], best arm(s) = [2], at time t = 1000 ...

New means vector = [0.3 0.2 0.1], best arm(s) = [0], at time t = 2000 ...

New means vector = [0.7 0.2 0.1], best arm(s) = [0], at time t = 3000 ...

New means vector = [0.7 0.5 0.1], best arm(s) = [0], at time t = 4000 ...

Estimated order by the policy Exp3.S($T=5000$, $\Upsilon_T=4$, $\alpha=0.0002$, $\gamma=1$) after 5000 steps: [0 1 2] ...
  ==> Optimal arm identification: 14.29% (relative success)...
  ==> Mean distance from optimal ordering: 100.00% (relative success)...



- Evaluating policy #10/19: Exp3.S($T=5000$, $\Upsilon_T=4$, $\alpha=0.0002$, $\gamma=0.119917$) ...

New means vector = [0.3 0.5 0.9], best arm(s) = [2], at time t = 0 ...

New means vector = [0.3 0.2 0.9], best arm(s) = [2], at time t = 1000 ...

New means vector = [0.3 0.2 0.1], best arm(s) = [0], at time t = 2000 ...

New means vector = [0.7 0.2 0.1], best arm(s) = [0], at time t = 3000 ...

New means vector = [0.7 0.5 0.1], best arm(s) = [0], at time t = 4000 ...

Estimated order by the policy Exp3.S($T=5000$, $\Upsilon_T=4$, $\alpha=0.0002$, $\gamma=0.119917$) after 5000 steps: [2 1 0] ...
  ==> Optimal arm identification: 100.00% (relative success)...
  ==> Mean distance from optimal ordering: 22.22% (relative success)...



- Evaluating policy #11/19: Exp3.S($T=5000$, $\Upsilon_T=4$, $\alpha=0.0002$, $\gamma=0.00119917$) ...

New means vector = [0.3 0.5 0.9], best arm(s) = [2], at time t = 0 ...

New means vector = [0.3 0.2 0.9], best arm(s) = [2], at time t = 1000 ...

New means vector = [0.3 0.2 0.1], best arm(s) = [0], at time t = 2000 ...

New means vector = [0.7 0.2 0.1], best arm(s) = [0], at time t = 3000 ...

New means vector = [0.7 0.5 0.1], best arm(s) = [0], at time t = 4000 ...

Estimated order by the policy Exp3.S($T=5000$, $\Upsilon_T=4$, $\alpha=0.0002$, $\gamma=0.00119917$) after 5000 steps: [1 2 0] ...
  ==> Optimal arm identification: 100.00% (relative success)...
  ==> Mean distance from optimal ordering: 38.89% (relative success)...



- Evaluating policy #12/19: Exp3R($T=5000$, $c=3.29$, $\alpha=0.01$) ...

New means vector = [0.3 0.5 0.9], best arm(s) = [2], at time t = 0 ...

New means vector = [0.3 0.2 0.9], best arm(s) = [2], at time t = 1000 ...

New means vector = [0.3 0.2 0.1], best arm(s) = [0], at time t = 2000 ...

New means vector = [0.7 0.2 0.1], best arm(s) = [0], at time t = 3000 ...

New means vector = [0.7 0.5 0.1], best arm(s) = [0], at time t = 4000 ...

Estimated order by the policy Exp3R($T=5000$, $c=3.29$, $\alpha=0.01$) after 5000 steps: [1 0 2] ...
  ==> Optimal arm identification: 14.29% (relative success)...
  ==> Mean distance from optimal ordering: 61.11% (relative success)...



- Evaluating policy #13/19: M-UCB($w=150$, Global) ...

New means vector = [0.3 0.5 0.9], best arm(s) = [2], at time t = 0 ...

New means vector = [0.3 0.2 0.9], best arm(s) = [2], at time t = 1000 ...

New means vector = [0.3 0.2 0.1], best arm(s) = [0], at time t = 2000 ...

New means vector = [0.7 0.2 0.1], best arm(s) = [0], at time t = 3000 ...

New means vector = [0.7 0.5 0.1], best arm(s) = [0], at time t = 4000 ...

Estimated order by the policy M-UCB($w=150$, Global) after 5000 steps: [2 1 0] ...
  ==> Optimal arm identification: 100.00% (relative success)...
  ==> Mean distance from optimal ordering: 22.22% (relative success)...



- Evaluating policy #14/19: M-klUCB($w=150$, Global) ...

New means vector = [0.3 0.5 0.9], best arm(s) = [2], at time t = 0 ...

New means vector = [0.3 0.2 0.9], best arm(s) = [2], at time t = 1000 ...

New means vector = [0.3 0.2 0.1], best arm(s) = [0], at time t = 2000 ...

New means vector = [0.7 0.2 0.1], best arm(s) = [0], at time t = 3000 ...

New means vector = [0.7 0.5 0.1], best arm(s) = [0], at time t = 4000 ...

Estimated order by the policy M-klUCB($w=150$, Global) after 5000 steps: [2 1 0] ...
  ==> Optimal arm identification: 100.00% (relative success)...
  ==> Mean distance from optimal ordering: 22.22% (relative success)...



- Evaluating policy #15/19: CUSUM-UCB(lazy detect 20) ...

New means vector = [0.3 0.5 0.9], best arm(s) = [2], at time t = 0 ...

New means vector = [0.3 0.2 0.9], best arm(s) = [2], at time t = 1000 ...

New means vector = [0.3 0.2 0.1], best arm(s) = [0], at time t = 2000 ...

New means vector = [0.7 0.2 0.1], best arm(s) = [0], at time t = 3000 ...

New means vector = [0.7 0.5 0.1], best arm(s) = [0], at time t = 4000 ...

Estimated order by the policy CUSUM-UCB(lazy detect 20) after 5000 steps: [2 1 0] ...
  ==> Optimal arm identification: 100.00% (relative success)...
  ==> Mean distance from optimal ordering: 22.22% (relative success)...



- Evaluating policy #16/19: CUSUM-klUCB(lazy detect 20) ...

New means vector = [0.3 0.5 0.9], best arm(s) = [2], at time t = 0 ...

New means vector = [0.3 0.2 0.9], best arm(s) = [2], at time t = 1000 ...

New means vector = [0.3 0.2 0.1], best arm(s) = [0], at time t = 2000 ...

New means vector = [0.7 0.2 0.1], best arm(s) = [0], at time t = 3000 ...

New means vector = [0.7 0.5 0.1], best arm(s) = [0], at time t = 4000 ...

Estimated order by the policy CUSUM-klUCB(lazy detect 20) after 5000 steps: [1 2 0] ...
  ==> Optimal arm identification: 100.00% (relative success)...
  ==> Mean distance from optimal ordering: 38.89% (relative success)...



- Evaluating policy #17/19: Gaussian-GLR-klUCB(Local) ...

New means vector = [0.3 0.5 0.9], best arm(s) = [2], at time t = 0 ...

New means vector = [0.3 0.2 0.9], best arm(s) = [2], at time t = 1000 ...

New means vector = [0.3 0.2 0.1], best arm(s) = [0], at time t = 2000 ...

New means vector = [0.7 0.2 0.1], best arm(s) = [0], at time t = 3000 ...

New means vector = [0.7 0.5 0.1], best arm(s) = [0], at time t = 4000 ...

Estimated order by the policy Gaussian-GLR-klUCB(Local) after 5000 steps: [1 2 0] ...
  ==> Optimal arm identification: 100.00% (relative success)...
  ==> Mean distance from optimal ordering: 38.89% (relative success)...



- Evaluating policy #18/19: GLR-klUCB_forGLR(Local) ...

New means vector = [0.3 0.5 0.9], best arm(s) = [2], at time t = 0 ...

New means vector = [0.3 0.2 0.9], best arm(s) = [2], at time t = 1000 ...

New means vector = [0.3 0.2 0.1], best arm(s) = [0], at time t = 2000 ...

New means vector = [0.7 0.2 0.1], best arm(s) = [0], at time t = 3000 ...

New means vector = [0.7 0.5 0.1], best arm(s) = [0], at time t = 4000 ...

Estimated order by the policy GLR-klUCB_forGLR(Local) after 5000 steps: [1 2 0] ...
  ==> Optimal arm identification: 100.00% (relative success)...
  ==> Mean distance from optimal ordering: 38.89% (relative success)...



- Evaluating policy #19/19: GLR-klUCB_forGLR(Global) ...

New means vector = [0.3 0.5 0.9], best arm(s) = [2], at time t = 0 ...

New means vector = [0.3 0.2 0.9], best arm(s) = [2], at time t = 1000 ...

New means vector = [0.3 0.2 0.1], best arm(s) = [0], at time t = 2000 ...

New means vector = [0.7 0.2 0.1], best arm(s) = [0], at time t = 3000 ...

New means vector = [0.7 0.5 0.1], best arm(s) = [0], at time t = 4000 ...

Estimated order by the policy GLR-klUCB_forGLR(Global) after 5000 steps: [2 1 0] ...
  ==> Optimal arm identification: 100.00% (relative success)...
  ==> Mean distance from optimal ordering: 22.22% (relative success)...

Giving the vector of final regrets ...

  For policy #0 called 'Oracle-UCB' ...
  Last regrets (for all repetitions) have:
Min of    last regrets R_T = -2
Mean of   last regrets R_T = 130
Median of last regrets R_T = 113
Max of    last regrets R_T = 362
Standard deviation     R_T = 65
130 \pm 65

  For policy #1 called 'Oracle-klUCB' ...
  Last regrets (for all repetitions) have:
Min of    last regrets R_T = -46
Mean of   last regrets R_T = 38.1
Median of last regrets R_T = 34.5
Max of    last regrets R_T = 274
Standard deviation     R_T = 36.4
38 \pm 36

  For policy #2 called 'Exp3.S($T=5000$, $\Upsilon_T=4$, $\alpha=0.02$, $\gamma=1$)' ...
  Last regrets (for all repetitions) have:
Min of    last regrets R_T = 1.41e+03
Mean of   last regrets R_T = 1.5e+03
Median of last regrets R_T = 1.5e+03
Max of    last regrets R_T = 1.61e+03
Standard deviation     R_T = 33.5
1499 \pm 33

  For policy #3 called 'Exp3.S($T=5000$, $\Upsilon_T=4$, $\alpha=0.02$, $\gamma=0.119917$)' ...
  Last regrets (for all repetitions) have:
Min of    last regrets R_T = 304
Mean of   last regrets R_T = 436
Median of last regrets R_T = 433
Max of    last regrets R_T = 680
Standard deviation     R_T = 50.3
436 \pm 50

  For policy #4 called 'Exp3.S($T=5000$, $\Upsilon_T=4$, $\alpha=0.02$, $\gamma=0.00119917$)' ...
  Last regrets (for all repetitions) have:
Min of    last regrets R_T = 459
Mean of   last regrets R_T = 1.47e+03
Median of last regrets R_T = 1.55e+03
Max of    last regrets R_T = 2.29e+03
Standard deviation     R_T = 360
1470 \pm 360

  For policy #5 called 'Exp3.S($T=5000$, $\Upsilon_T=4$, $\alpha=0.01$, $\gamma=1$)' ...
  Last regrets (for all repetitions) have:
Min of    last regrets R_T = 1.39e+03
Mean of   last regrets R_T = 1.5e+03
Median of last regrets R_T = 1.5e+03
Max of    last regrets R_T = 1.63e+03
Standard deviation     R_T = 32.5
1501 \pm 32

  For policy #6 called 'Exp3.S($T=5000$, $\Upsilon_T=4$, $\alpha=0.01$, $\gamma=0.119917$)' ...
  Last regrets (for all repetitions) have:
Min of    last regrets R_T = 217
Mean of   last regrets R_T = 365
Median of last regrets R_T = 362
Max of    last regrets R_T = 519
Standard deviation     R_T = 44.9
365 \pm 45

  For policy #7 called 'Exp3.S($T=5000$, $\Upsilon_T=4$, $\alpha=0.01$, $\gamma=0.00119917$)' ...
  Last regrets (for all repetitions) have:
Min of    last regrets R_T = 793
Mean of   last regrets R_T = 1.49e+03
Median of last regrets R_T = 1.51e+03
Max of    last regrets R_T = 2.03e+03
Standard deviation     R_T = 232
1493 \pm 232

  For policy #8 called 'Exp3.S($T=5000$, $\Upsilon_T=4$, $\alpha=0.0002$, $\gamma=1$)' ...
  Last regrets (for all repetitions) have:
Min of    last regrets R_T = 1.4e+03
Mean of   last regrets R_T = 1.5e+03
Median of last regrets R_T = 1.5e+03
Max of    last regrets R_T = 1.6e+03
Standard deviation     R_T = 32.6
1501 \pm 33

  For policy #9 called 'Exp3.S($T=5000$, $\Upsilon_T=4$, $\alpha=0.0002$, $\gamma=0.119917$)' ...
  Last regrets (for all repetitions) have:
Min of    last regrets R_T = 156
Mean of   last regrets R_T = 356
Median of last regrets R_T = 352
Max of    last regrets R_T = 568
Standard deviation     R_T = 54
356 \pm 54

  For policy #10 called 'Exp3.S($T=5000$, $\Upsilon_T=4$, $\alpha=0.0002$, $\gamma=0.00119917$)' ...
  Last regrets (for all repetitions) have:
Min of    last regrets R_T = 1.37e+03
Mean of   last regrets R_T = 1.48e+03
Median of last regrets R_T = 1.48e+03
Max of    last regrets R_T = 1.58e+03
Standard deviation     R_T = 36.7
1482 \pm 37

  For policy #11 called 'Exp3R($T=5000$, $c=3.29$, $\alpha=0.01$)' ...
  Last regrets (for all repetitions) have:
Min of    last regrets R_T = 1.04e+03
Mean of   last regrets R_T = 1.31e+03
Median of last regrets R_T = 1.32e+03
Max of    last regrets R_T = 1.6e+03
Standard deviation     R_T = 95.3
1314 \pm 95

  For policy #12 called 'M-UCB($w=150$, Global)' ...
  Last regrets (for all repetitions) have:
Min of    last regrets R_T = 227
Mean of   last regrets R_T = 315
Median of last regrets R_T = 314
Max of    last regrets R_T = 415
Standard deviation     R_T = 30.4
315 \pm 30

  For policy #13 called 'M-klUCB($w=150$, Global)' ...
  Last regrets (for all repetitions) have:
Min of    last regrets R_T = 195
Mean of   last regrets R_T = 287
Median of last regrets R_T = 288
Max of    last regrets R_T = 376
Standard deviation     R_T = 29.9
287 \pm 30

  For policy #14 called 'CUSUM-UCB(lazy detect 20)' ...
  Last regrets (for all repetitions) have:
Min of    last regrets R_T = 87
Mean of   last regrets R_T = 198
Median of last regrets R_T = 196
Max of    last regrets R_T = 358
Standard deviation     R_T = 37.3
198 \pm 37

  For policy #15 called 'CUSUM-klUCB(lazy detect 20)' ...
  Last regrets (for all repetitions) have:
Min of    last regrets R_T = 43
Mean of   last regrets R_T = 150
Median of last regrets R_T = 149
Max of    last regrets R_T = 262
Standard deviation     R_T = 32.6
150 \pm 33

  For policy #16 called 'Gaussian-GLR-klUCB(Local)' ...
  Last regrets (for all repetitions) have:
Min of    last regrets R_T = -34
Mean of   last regrets R_T = 51.6
Median of last regrets R_T = 52
Max of    last regrets R_T = 148
Standard deviation     R_T = 30.2
52 \pm 30

  For policy #17 called 'GLR-klUCB(Local, $\alpha_0=1$)' ...
  Last regrets (for all repetitions) have:
Min of    last regrets R_T = -17
Mean of   last regrets R_T = 72.6
Median of last regrets R_T = 73
Max of    last regrets R_T = 170
Standard deviation     R_T = 30.2
73 \pm 30

  For policy #18 called 'GLR-klUCB(Global, $\alpha_0=1$)' ...
  Last regrets (for all repetitions) have:
Min of    last regrets R_T = 4
Mean of   last regrets R_T = 98.7
Median of last regrets R_T = 99
Max of    last regrets R_T = 192
Standard deviation     R_T = 31.3
99 \pm 31

Giving the final ranks ...

Final ranking for this environment #0 :
- Policy 'Oracle-klUCB'	was ranked	1 / 19 for this simulation (last regret = 39.313).
- Policy 'Gaussian-GLR-klUCB(Local)'	was ranked	2 / 19 for this simulation (last regret = 52.063).
- Policy 'GLR-klUCB(Local, $\alpha_0=1$)'	was ranked	3 / 19 for this simulation (last regret = 73.301).
- Policy 'GLR-klUCB(Global, $\alpha_0=1$)'	was ranked	4 / 19 for this simulation (last regret = 97.552).
- Policy 'Oracle-UCB'	was ranked	5 / 19 for this simulation (last regret = 129.17).
- Policy 'CUSUM-klUCB(lazy detect 20)'	was ranked	6 / 19 for this simulation (last regret = 150.64).
- Policy 'CUSUM-UCB(lazy detect 20)'	was ranked	7 / 19 for this simulation (last regret = 195.79).
- Policy 'M-klUCB($w=150$, Global)'	was ranked	8 / 19 for this simulation (last regret = 285.56).
- Policy 'M-UCB($w=150$, Global)'	was ranked	9 / 19 for this simulation (last regret = 314.02).
- Policy 'Exp3.S($T=5000$, $\Upsilon_T=4$, $\alpha=0.0002$, $\gamma=0.119917$)'	was ranked	10 / 19 for this simulation (last regret = 354.89).
- Policy 'Exp3.S($T=5000$, $\Upsilon_T=4$, $\alpha=0.01$, $\gamma=0.119917$)'	was ranked	11 / 19 for this simulation (last regret = 363.53).
- Policy 'Exp3.S($T=5000$, $\Upsilon_T=4$, $\alpha=0.02$, $\gamma=0.119917$)'	was ranked	12 / 19 for this simulation (last regret = 432.73).
- Policy 'Exp3R($T=5000$, $c=3.29$, $\alpha=0.01$)'	was ranked	13 / 19 for this simulation (last regret = 1307.6).
- Policy 'Exp3.S($T=5000$, $\Upsilon_T=4$, $\alpha=0.02$, $\gamma=0.00119917$)'	was ranked	14 / 19 for this simulation (last regret = 1457.7).
- Policy 'Exp3.S($T=5000$, $\Upsilon_T=4$, $\alpha=0.0002$, $\gamma=0.00119917$)'	was ranked	15 / 19 for this simulation (last regret = 1470).
- Policy 'Exp3.S($T=5000$, $\Upsilon_T=4$, $\alpha=0.01$, $\gamma=0.00119917$)'	was ranked	16 / 19 for this simulation (last regret = 1479.8).
- Policy 'Exp3.S($T=5000$, $\Upsilon_T=4$, $\alpha=0.02$, $\gamma=1$)'	was ranked	17 / 19 for this simulation (last regret = 1487.4).
- Policy 'Exp3.S($T=5000$, $\Upsilon_T=4$, $\alpha=0.0002$, $\gamma=1$)'	was ranked	18 / 19 for this simulation (last regret = 1487.8).
- Policy 'Exp3.S($T=5000$, $\Upsilon_T=4$, $\alpha=0.01$, $\gamma=1$)'	was ranked	19 / 19 for this simulation (last regret = 1487.8).

Giving the mean and std running times ...

For policy #0 called 'Oracle-UCB' ...
    356 ms ± 48.4 ms per loop (mean ± std. dev. of 1000 run)

For policy #12 called 'M-UCB($w=150$, Global)' ...
    549 ms ± 32.7 ms per loop (mean ± std. dev. of 1000 run)

For policy #1 called 'Oracle-klUCB' ...
    682 ms ± 82.6 ms per loop (mean ± std. dev. of 1000 run)

For policy #13 called 'M-klUCB($w=150$, Global)' ...
    845 ms ± 46.8 ms per loop (mean ± std. dev. of 1000 run)

For policy #14 called 'CUSUM-UCB(lazy detect 20)' ...
    973 ms ± 91 ms per loop (mean ± std. dev. of 1000 run)

For policy #15 called 'CUSUM-klUCB(lazy detect 20)' ...
    1.31 s ± 104 ms per loop (mean ± std. dev. of 1000 run)

For policy #7 called 'Exp3.S($T=5000$, $\Upsilon_T=4$, $\alpha=0.01$, $\gamma=0.00119917$)' ...
    1.54 s ± 134 ms per loop (mean ± std. dev. of 1000 run)

For policy #9 called 'Exp3.S($T=5000$, $\Upsilon_T=4$, $\alpha=0.0002$, $\gamma=0.119917$)' ...
    1.54 s ± 137 ms per loop (mean ± std. dev. of 1000 run)

For policy #10 called 'Exp3.S($T=5000$, $\Upsilon_T=4$, $\alpha=0.0002$, $\gamma=0.00119917$)' ...
    1.54 s ± 137 ms per loop (mean ± std. dev. of 1000 run)

For policy #6 called 'Exp3.S($T=5000$, $\Upsilon_T=4$, $\alpha=0.01$, $\gamma=0.119917$)' ...
    1.55 s ± 155 ms per loop (mean ± std. dev. of 1000 run)

For policy #3 called 'Exp3.S($T=5000$, $\Upsilon_T=4$, $\alpha=0.02$, $\gamma=0.119917$)' ...
    1.55 s ± 153 ms per loop (mean ± std. dev. of 1000 run)

For policy #4 called 'Exp3.S($T=5000$, $\Upsilon_T=4$, $\alpha=0.02$, $\gamma=0.00119917$)' ...
    1.56 s ± 162 ms per loop (mean ± std. dev. of 1000 run)

For policy #2 called 'Exp3.S($T=5000$, $\Upsilon_T=4$, $\alpha=0.02$, $\gamma=1$)' ...
    1.58 s ± 153 ms per loop (mean ± std. dev. of 1000 run)

For policy #8 called 'Exp3.S($T=5000$, $\Upsilon_T=4$, $\alpha=0.0002$, $\gamma=1$)' ...
    1.59 s ± 127 ms per loop (mean ± std. dev. of 1000 run)

For policy #5 called 'Exp3.S($T=5000$, $\Upsilon_T=4$, $\alpha=0.01$, $\gamma=1$)' ...
    1.6 s ± 156 ms per loop (mean ± std. dev. of 1000 run)

For policy #11 called 'Exp3R($T=5000$, $c=3.29$, $\alpha=0.01$)' ...
    1.71 s ± 123 ms per loop (mean ± std. dev. of 1000 run)

For policy #16 called 'Gaussian-GLR-klUCB(Local)' ...
    1.92 s ± 95.9 ms per loop (mean ± std. dev. of 1000 run)

For policy #17 called 'GLR-klUCB(Local, $\alpha_0=1$)' ...
    2.26 s ± 238 ms per loop (mean ± std. dev. of 1000 run)

For policy #18 called 'GLR-klUCB(Global, $\alpha_0=1$)' ...
    2.29 s ± 258 ms per loop (mean ± std. dev. of 1000 run)

Giving the mean and std memory consumption ...

For policy #2 called 'Exp3.S($T=5000$, $\Upsilon_T=4$, $\alpha=0.02$, $\gamma=1$)' ...
    881.2 B ± 57.1 B (mean ± std. dev. of 1000 runs)

For policy #5 called 'Exp3.S($T=5000$, $\Upsilon_T=4$, $\alpha=0.01$, $\gamma=1$)' ...
    885.5 B ± 15.6 B (mean ± std. dev. of 1000 runs)

For policy #8 called 'Exp3.S($T=5000$, $\Upsilon_T=4$, $\alpha=0.0002$, $\gamma=1$)' ...
    887.3 B ± 23.1 B (mean ± std. dev. of 1000 runs)

For policy #3 called 'Exp3.S($T=5000$, $\Upsilon_T=4$, $\alpha=0.02$, $\gamma=0.119917$)' ...
    977.5 B ± 34.3 B (mean ± std. dev. of 1000 runs)

For policy #6 called 'Exp3.S($T=5000$, $\Upsilon_T=4$, $\alpha=0.01$, $\gamma=0.119917$)' ...
    979 B ± 0 B (mean ± std. dev. of 1000 runs)

For policy #4 called 'Exp3.S($T=5000$, $\Upsilon_T=4$, $\alpha=0.02$, $\gamma=0.00119917$)' ...
    980.5 B ± 17.4 B (mean ± std. dev. of 1000 runs)

For policy #9 called 'Exp3.S($T=5000$, $\Upsilon_T=4$, $\alpha=0.0002$, $\gamma=0.119917$)' ...
    981 B ± 0 B (mean ± std. dev. of 1000 runs)

For policy #7 called 'Exp3.S($T=5000$, $\Upsilon_T=4$, $\alpha=0.01$, $\gamma=0.00119917$)' ...
    981 B ± 0 B (mean ± std. dev. of 1000 runs)

For policy #10 called 'Exp3.S($T=5000$, $\Upsilon_T=4$, $\alpha=0.0002$, $\gamma=0.00119917$)' ...
    983 B ± 0 B (mean ± std. dev. of 1000 runs)

For policy #12 called 'M-UCB($w=150$, Global)' ...
    5.3 KiB ± 188.1 B (mean ± std. dev. of 1000 runs)

For policy #13 called 'M-klUCB($w=150$, Global)' ...
    5.7 KiB ± 283.3 B (mean ± std. dev. of 1000 runs)

For policy #1 called 'Oracle-klUCB' ...
    12.3 KiB ± 1.2 KiB (mean ± std. dev. of 1000 runs)

For policy #0 called 'Oracle-UCB' ...
    12.5 KiB ± 4.5 KiB (mean ± std. dev. of 1000 runs)

For policy #15 called 'CUSUM-klUCB(lazy detect 20)' ...
    15.2 KiB ± 5.8 KiB (mean ± std. dev. of 1000 runs)

For policy #14 called 'CUSUM-UCB(lazy detect 20)' ...
    16.3 KiB ± 5.6 KiB (mean ± std. dev. of 1000 runs)

For policy #18 called 'GLR-klUCB(Global, $\alpha_0=1$)' ...
    19.3 KiB ± 413.6 B (mean ± std. dev. of 1000 runs)

For policy #16 called 'Gaussian-GLR-klUCB(Local)' ...
    21 KiB ± 868.8 B (mean ± std. dev. of 1000 runs)

For policy #17 called 'GLR-klUCB(Local, $\alpha_0=1$)' ...
    22.3 KiB ± 725.2 B (mean ± std. dev. of 1000 runs)

For policy #11 called 'Exp3R($T=5000$, $c=3.29$, $\alpha=0.01$)' ...
    40.3 KiB ± 14.5 KiB (mean ± std. dev. of 1000 runs)

Giving the mean and std number of CP detections ...

For policy #9 called 'Exp3.S($T=5000$, $\Upsilon_T=4$, $\alpha=0.0002$, $\gamma=0.119917$)' ...
    0 ± 0 (mean ± std. dev. of 1000 runs)

For policy #2 called 'Exp3.S($T=5000$, $\Upsilon_T=4$, $\alpha=0.02$, $\gamma=1$)' ...
    0 ± 0 (mean ± std. dev. of 1000 runs)

For policy #3 called 'Exp3.S($T=5000$, $\Upsilon_T=4$, $\alpha=0.02$, $\gamma=0.119917$)' ...
    0 ± 0 (mean ± std. dev. of 1000 runs)

For policy #4 called 'Exp3.S($T=5000$, $\Upsilon_T=4$, $\alpha=0.02$, $\gamma=0.00119917$)' ...
    0 ± 0 (mean ± std. dev. of 1000 runs)

For policy #5 called 'Exp3.S($T=5000$, $\Upsilon_T=4$, $\alpha=0.01$, $\gamma=1$)' ...
    0 ± 0 (mean ± std. dev. of 1000 runs)

For policy #6 called 'Exp3.S($T=5000$, $\Upsilon_T=4$, $\alpha=0.01$, $\gamma=0.119917$)' ...
    0 ± 0 (mean ± std. dev. of 1000 runs)

For policy #7 called 'Exp3.S($T=5000$, $\Upsilon_T=4$, $\alpha=0.01$, $\gamma=0.00119917$)' ...
    0 ± 0 (mean ± std. dev. of 1000 runs)

For policy #8 called 'Exp3.S($T=5000$, $\Upsilon_T=4$, $\alpha=0.0002$, $\gamma=1$)' ...
    0 ± 0 (mean ± std. dev. of 1000 runs)

For policy #10 called 'Exp3.S($T=5000$, $\Upsilon_T=4$, $\alpha=0.0002$, $\gamma=0.00119917$)' ...
    0 ± 0 (mean ± std. dev. of 1000 runs)

For policy #11 called 'Exp3R($T=5000$, $c=3.29$, $\alpha=0.01$)' ...
    0 ± 0 (mean ± std. dev. of 1000 runs)

For policy #13 called 'M-klUCB($w=150$, Global)' ...
    1.14 ± 0.351 (mean ± std. dev. of 1000 runs)

For policy #12 called 'M-UCB($w=150$, Global)' ...
    1.16 ± 0.364 (mean ± std. dev. of 1000 runs)

For policy #18 called 'GLR-klUCB(Global, $\alpha_0=1$)' ...
    2 ± 0.0316 (mean ± std. dev. of 1000 runs)

For policy #17 called 'GLR-klUCB(Local, $\alpha_0=1$)' ...
    2.08 ± 0.276 (mean ± std. dev. of 1000 runs)

For policy #16 called 'Gaussian-GLR-klUCB(Local)' ...
    2.15 ± 0.358 (mean ± std. dev. of 1000 runs)

For policy #1 called 'Oracle-klUCB' ...
    4 ± 0 (mean ± std. dev. of 1000 runs)

For policy #0 called 'Oracle-UCB' ...
    4 ± 0 (mean ± std. dev. of 1000 runs)

For policy #15 called 'CUSUM-klUCB(lazy detect 20)' ...
    4.25 ± 1.3 (mean ± std. dev. of 1000 runs)

For policy #14 called 'CUSUM-UCB(lazy detect 20)' ...
    4.44 ± 1.17 (mean ± std. dev. of 1000 runs)
Copying /home/lilian_besson/SMPyBandits.git/SMPyBandits/configuration_nonstationary.py to plots/SP__K3_T5000_N1000__19_algos/configuration_nonstationary__env1-1_3533161389089043567.py...
Saving full configuration dictionnary to plots/SP__K3_T5000_N1000__19_algos/configuration_nonstationary__env1-1_3533161389089043567_minimalist.py...
Error: when saving the Evaluator object to a HDF5 file, the attribute named change_labels (value {17: 'GLR-klUCB(Local, $\\alpha_0=1$)', 18: 'GLR-klUCB(Global, $\\alpha_0=1$)'} of type <class 'dict'>) couldn't be saved. Skipping...
Error: when saving the Evaluator object to a HDF5 file, the attribute named append_labels (value {} of type <class 'dict'>) couldn't be saved. Skipping...
Error: when saving the Evaluator object to a HDF5 file, the attribute named _sparsity (value None of type <class 'NoneType'>) couldn't be saved. Skipping...
 - Plotting the history of means, and saving the plot to plots/SP__K3_T5000_N1000__19_algos/main_HistoryOfMeans____env1-1_3533161389089043567 ...
Saving figure with format png, to file 'plots/SP__K3_T5000_N1000__19_algos/main_HistoryOfMeans____env1-1_3533161389089043567.png'...
       Saved! 'plots/SP__K3_T5000_N1000__19_algos/main_HistoryOfMeans____env1-1_3533161389089043567.png' created of size '72749b', at 'Mon Mar 25 20:47:26 2019' ...
Saving figure with format pdf, to file 'plots/SP__K3_T5000_N1000__19_algos/main_HistoryOfMeans____env1-1_3533161389089043567.pdf'...
       Saved! 'plots/SP__K3_T5000_N1000__19_algos/main_HistoryOfMeans____env1-1_3533161389089043567.pdf' created of size '25551b', at 'Mon Mar 25 20:47:26 2019' ...
Saving figure with format png, to file 'plots/SP__K3_T5000_N1000__19_algos/main_BoxPlotRegret____env1-1_3533161389089043567.png'...
       Saved! 'plots/SP__K3_T5000_N1000__19_algos/main_BoxPlotRegret____env1-1_3533161389089043567.png' created of size '193396b', at 'Mon Mar 25 20:47:26 2019' ...
Saving figure with format pdf, to file 'plots/SP__K3_T5000_N1000__19_algos/main_BoxPlotRegret____env1-1_3533161389089043567.pdf'...
       Saved! 'plots/SP__K3_T5000_N1000__19_algos/main_BoxPlotRegret____env1-1_3533161389089043567.pdf' created of size '41842b', at 'Mon Mar 25 20:47:27 2019' ...
 - Plotting the running times, and saving the plot to plots/SP__K3_T5000_N1000__19_algos/main_RunningTimes____env1-1_3533161389089043567 ...
Saving figure with format png, to file 'plots/SP__K3_T5000_N1000__19_algos/main_RunningTimes____env1-1_3533161389089043567.png'...
       Saved! 'plots/SP__K3_T5000_N1000__19_algos/main_RunningTimes____env1-1_3533161389089043567.png' created of size '199052b', at 'Mon Mar 25 20:47:27 2019' ...
Saving figure with format pdf, to file 'plots/SP__K3_T5000_N1000__19_algos/main_RunningTimes____env1-1_3533161389089043567.pdf'...
       Saved! 'plots/SP__K3_T5000_N1000__19_algos/main_RunningTimes____env1-1_3533161389089043567.pdf' created of size '50320b', at 'Mon Mar 25 20:47:28 2019' ...
 - Plotting the memory consumption, and saving the plot to plots/SP__K3_T5000_N1000__19_algos/main_MemoryConsumption____env1-1_3533161389089043567 ...
Saving figure with format png, to file 'plots/SP__K3_T5000_N1000__19_algos/main_MemoryConsumption____env1-1_3533161389089043567.png'...
       Saved! 'plots/SP__K3_T5000_N1000__19_algos/main_MemoryConsumption____env1-1_3533161389089043567.png' created of size '183911b', at 'Mon Mar 25 20:47:29 2019' ...
Saving figure with format pdf, to file 'plots/SP__K3_T5000_N1000__19_algos/main_MemoryConsumption____env1-1_3533161389089043567.pdf'...
       Saved! 'plots/SP__K3_T5000_N1000__19_algos/main_MemoryConsumption____env1-1_3533161389089043567.pdf' created of size '37197b', at 'Mon Mar 25 20:47:29 2019' ...
 - Plotting the memory consumption, and saving the plot to plots/SP__K3_T5000_N1000__19_algos/main_NumberOfCPDetections____env1-1_3533161389089043567 ...
Saving figure with format png, to file 'plots/SP__K3_T5000_N1000__19_algos/main_NumberOfCPDetections____env1-1_3533161389089043567.png'...
       Saved! 'plots/SP__K3_T5000_N1000__19_algos/main_NumberOfCPDetections____env1-1_3533161389089043567.png' created of size '175137b', at 'Mon Mar 25 20:47:30 2019' ...
Saving figure with format pdf, to file 'plots/SP__K3_T5000_N1000__19_algos/main_NumberOfCPDetections____env1-1_3533161389089043567.pdf'...
       Saved! 'plots/SP__K3_T5000_N1000__19_algos/main_NumberOfCPDetections____env1-1_3533161389089043567.pdf' created of size '34027b', at 'Mon Mar 25 20:47:30 2019' ...
 - Plotting the mean rewards, and saving the plot to plots/SP__K3_T5000_N1000__19_algos/main_MeanRewards____env1-1_3533161389089043567 ...

This MAB problem has: 
 - a [Lai & Robbins] complexity constant C(mu) = 1.36 for 1-player problem... 
 - a Optimal Arm Identification factor H_OI(mu) = 33.33% ...
Warning: forcing to use putatright = True because there is 20 items in the legend.
Saving figure with format png, to file 'plots/SP__K3_T5000_N1000__19_algos/main_MeanRewards____env1-1_3533161389089043567.png'...
       Saved! 'plots/SP__K3_T5000_N1000__19_algos/main_MeanRewards____env1-1_3533161389089043567.png' created of size '276385b', at 'Mon Mar 25 20:47:31 2019' ...
Saving figure with format pdf, to file 'plots/SP__K3_T5000_N1000__19_algos/main_MeanRewards____env1-1_3533161389089043567.pdf'...
       Saved! 'plots/SP__K3_T5000_N1000__19_algos/main_MeanRewards____env1-1_3533161389089043567.pdf' created of size '80256b', at 'Mon Mar 25 20:47:31 2019' ...
 - Plotting the cumulative rewards, and saving the plot to plots/SP__K3_T5000_N1000__19_algos/main_MeanRewards____env1-1_3533161389089043567 ...

This MAB problem has: 
 - a [Lai & Robbins] complexity constant C(mu) = 1.36 for 1-player problem... 
 - a Optimal Arm Identification factor H_OI(mu) = 33.33% ...
Warning: forcing to use putatright = True because there is 19 items in the legend.
Saving figure with format png, to file 'plots/SP__K3_T5000_N1000__19_algos/main____env1-1_3533161389089043567.png'...
       Saved! 'plots/SP__K3_T5000_N1000__19_algos/main____env1-1_3533161389089043567.png' created of size '249083b', at 'Mon Mar 25 20:47:32 2019' ...
Saving figure with format pdf, to file 'plots/SP__K3_T5000_N1000__19_algos/main____env1-1_3533161389089043567.pdf'...
       Saved! 'plots/SP__K3_T5000_N1000__19_algos/main____env1-1_3533161389089043567.pdf' created of size '63695b', at 'Mon Mar 25 20:47:33 2019' ...

This MAB problem has: 
 - a [Lai & Robbins] complexity constant C(mu) = 1.36 for 1-player problem... 
 - a Optimal Arm Identification factor H_OI(mu) = 33.33% ...
Warning: forcing to use putatright = True because there is 19 items in the legend.
Saving figure with format png, to file 'plots/SP__K3_T5000_N1000__19_algos/main_LessAccurate____env1-1_3533161389089043567.png'...
       Saved! 'plots/SP__K3_T5000_N1000__19_algos/main_LessAccurate____env1-1_3533161389089043567.png' created of size '246669b', at 'Mon Mar 25 20:47:34 2019' ...
Saving figure with format pdf, to file 'plots/SP__K3_T5000_N1000__19_algos/main_LessAccurate____env1-1_3533161389089043567.pdf'...
       Saved! 'plots/SP__K3_T5000_N1000__19_algos/main_LessAccurate____env1-1_3533161389089043567.pdf' created of size '70131b', at 'Mon Mar 25 20:47:34 2019' ...
 - Plotting the probability of picking the best arm, and saving the plot to plots/SP__K3_T5000_N1000__19_algos/main_BestArmPulls____env1-1_3533161389089043567 ...
Warning: forcing to use putatright = True because there is 19 items in the legend.
Saving figure with format png, to file 'plots/SP__K3_T5000_N1000__19_algos/main_BestArmPulls____env1-1_3533161389089043567.png'...
       Saved! 'plots/SP__K3_T5000_N1000__19_algos/main_BestArmPulls____env1-1_3533161389089043567.png' created of size '287421b', at 'Mon Mar 25 20:47:35 2019' ...
Saving figure with format pdf, to file 'plots/SP__K3_T5000_N1000__19_algos/main_BestArmPulls____env1-1_3533161389089043567.pdf'...
       Saved! 'plots/SP__K3_T5000_N1000__19_algos/main_BestArmPulls____env1-1_3533161389089043567.pdf' created of size '80888b', at 'Mon Mar 25 20:47:35 2019' ...
Warning: forcing to use putatright = True because there is 19 items in the legend.
Saving figure with format png, to file 'plots/SP__K3_T5000_N1000__19_algos/main_semilogy____env1-1_3533161389089043567.png'...
       Saved! 'plots/SP__K3_T5000_N1000__19_algos/main_semilogy____env1-1_3533161389089043567.png' created of size '250304b', at 'Mon Mar 25 20:47:36 2019' ...
Saving figure with format pdf, to file 'plots/SP__K3_T5000_N1000__19_algos/main_semilogy____env1-1_3533161389089043567.pdf'...
       Saved! 'plots/SP__K3_T5000_N1000__19_algos/main_semilogy____env1-1_3533161389089043567.pdf' created of size '69324b', at 'Mon Mar 25 20:47:37 2019' ...
Warning: forcing to use putatright = True because there is 19 items in the legend.
Saving figure with format png, to file 'plots/SP__K3_T5000_N1000__19_algos/main_loglog____env1-1_3533161389089043567.png'...
       Saved! 'plots/SP__K3_T5000_N1000__19_algos/main_loglog____env1-1_3533161389089043567.png' created of size '264276b', at 'Mon Mar 25 20:47:39 2019' ...
Saving figure with format pdf, to file 'plots/SP__K3_T5000_N1000__19_algos/main_loglog____env1-1_3533161389089043567.pdf'...
       Saved! 'plots/SP__K3_T5000_N1000__19_algos/main_loglog____env1-1_3533161389089043567.pdf' created of size '66738b', at 'Mon Mar 25 20:47:39 2019' ...
 - Plotting the mean rewards, and saving the plot to plots/SP__K3_T5000_N1000__19_algos/main_Normalized____env1-1_3533161389089043567 ...

This MAB problem has: 
 - a [Lai & Robbins] complexity constant C(mu) = 1.36 for 1-player problem... 
 - a Optimal Arm Identification factor H_OI(mu) = 33.33% ...
Warning: forcing to use putatright = True because there is 19 items in the legend.
Saving figure with format png, to file 'plots/SP__K3_T5000_N1000__19_algos/main_Normalized____env1-1_3533161389089043567.png'...
       Saved! 'plots/SP__K3_T5000_N1000__19_algos/main_Normalized____env1-1_3533161389089043567.png' created of size '248334b', at 'Mon Mar 25 20:47:40 2019' ...
Saving figure with format pdf, to file 'plots/SP__K3_T5000_N1000__19_algos/main_Normalized____env1-1_3533161389089043567.pdf'...
       Saved! 'plots/SP__K3_T5000_N1000__19_algos/main_Normalized____env1-1_3533161389089043567.pdf' created of size '66620b', at 'Mon Mar 25 20:47:41 2019' ...
Warning: forcing to use putatright = True because there is 19 items in the legend.
Saving figure with format png, to file 'plots/SP__K3_T5000_N1000__19_algos/main_HistogramsRegret____env1-1_3533161389089043567.png'...
       Saved! 'plots/SP__K3_T5000_N1000__19_algos/main_HistogramsRegret____env1-1_3533161389089043567.png' created of size '244262b', at 'Mon Mar 25 20:47:42 2019' ...
Saving figure with format pdf, to file 'plots/SP__K3_T5000_N1000__19_algos/main_HistogramsRegret____env1-1_3533161389089043567.pdf'...
       Saved! 'plots/SP__K3_T5000_N1000__19_algos/main_HistogramsRegret____env1-1_3533161389089043567.pdf' created of size '60344b', at 'Mon Mar 25 20:47:42 2019' ...
 - Plotting the histograms of regrets, and saving the plot to plots/SP__K3_T5000_N1000__19_algos/main_HistogramsRegret____env1-1_3533161389089043567 ...
  and saving the plot to plots/SP__K3_T5000_N1000__19_algos/main_HistogramsRegret_shareX____env1-1_3533161389089043567 ...
Saving figure with format png, to file 'plots/SP__K3_T5000_N1000__19_algos/main_HistogramsRegret_shareX____env1-1_3533161389089043567.png'...
       Saved! 'plots/SP__K3_T5000_N1000__19_algos/main_HistogramsRegret_shareX____env1-1_3533161389089043567.png' created of size '214139b', at 'Mon Mar 25 20:47:44 2019' ...
Saving figure with format pdf, to file 'plots/SP__K3_T5000_N1000__19_algos/main_HistogramsRegret_shareX____env1-1_3533161389089043567.pdf'...
       Saved! 'plots/SP__K3_T5000_N1000__19_algos/main_HistogramsRegret_shareX____env1-1_3533161389089043567.pdf' created of size '70686b', at 'Mon Mar 25 20:47:44 2019' ...
 - Plotting the histograms of regrets for each algorithm separately, and saving the plots ...
  and saving the plot to plots/SP__K3_T5000_N1000__19_algos/main_HistogramsRegret____env1-1_3533161389089043567 ...
Saving figure with format png, to file 'plots/SP__K3_T5000_N1000__19_algos/main_HistogramsRegret____env1-1_3533161389089043567__Algo_1_20.png'...
       Saved! 'plots/SP__K3_T5000_N1000__19_algos/main_HistogramsRegret____env1-1_3533161389089043567__Algo_1_20.png' created of size '104997b', at 'Mon Mar 25 20:47:45 2019' ...
Saving figure with format pdf, to file 'plots/SP__K3_T5000_N1000__19_algos/main_HistogramsRegret____env1-1_3533161389089043567__Algo_1_20.pdf'...
       Saved! 'plots/SP__K3_T5000_N1000__19_algos/main_HistogramsRegret____env1-1_3533161389089043567__Algo_1_20.pdf' created of size '27220b', at 'Mon Mar 25 20:47:45 2019' ...
Saving figure with format png, to file 'plots/SP__K3_T5000_N1000__19_algos/main_HistogramsRegret____env1-1_3533161389089043567__Algo_2_20.png'...
       Saved! 'plots/SP__K3_T5000_N1000__19_algos/main_HistogramsRegret____env1-1_3533161389089043567__Algo_2_20.png' created of size '94502b', at 'Mon Mar 25 20:47:46 2019' ...
Saving figure with format pdf, to file 'plots/SP__K3_T5000_N1000__19_algos/main_HistogramsRegret____env1-1_3533161389089043567__Algo_2_20.pdf'...
       Saved! 'plots/SP__K3_T5000_N1000__19_algos/main_HistogramsRegret____env1-1_3533161389089043567__Algo_2_20.pdf' created of size '26728b', at 'Mon Mar 25 20:47:46 2019' ...
Saving figure with format png, to file 'plots/SP__K3_T5000_N1000__19_algos/main_HistogramsRegret____env1-1_3533161389089043567__Algo_3_20.png'...
       Saved! 'plots/SP__K3_T5000_N1000__19_algos/main_HistogramsRegret____env1-1_3533161389089043567__Algo_3_20.png' created of size '104991b', at 'Mon Mar 25 20:47:46 2019' ...
Saving figure with format pdf, to file 'plots/SP__K3_T5000_N1000__19_algos/main_HistogramsRegret____env1-1_3533161389089043567__Algo_3_20.pdf'...
       Saved! 'plots/SP__K3_T5000_N1000__19_algos/main_HistogramsRegret____env1-1_3533161389089043567__Algo_3_20.pdf' created of size '28764b', at 'Mon Mar 25 20:47:46 2019' ...
Saving figure with format png, to file 'plots/SP__K3_T5000_N1000__19_algos/main_HistogramsRegret____env1-1_3533161389089043567__Algo_4_20.png'...
       Saved! 'plots/SP__K3_T5000_N1000__19_algos/main_HistogramsRegret____env1-1_3533161389089043567__Algo_4_20.png' created of size '106317b', at 'Mon Mar 25 20:47:46 2019' ...
Saving figure with format pdf, to file 'plots/SP__K3_T5000_N1000__19_algos/main_HistogramsRegret____env1-1_3533161389089043567__Algo_4_20.pdf'...
       Saved! 'plots/SP__K3_T5000_N1000__19_algos/main_HistogramsRegret____env1-1_3533161389089043567__Algo_4_20.pdf' created of size '29882b', at 'Mon Mar 25 20:47:46 2019' ...
Saving figure with format png, to file 'plots/SP__K3_T5000_N1000__19_algos/main_HistogramsRegret____env1-1_3533161389089043567__Algo_5_20.png'...
       Saved! 'plots/SP__K3_T5000_N1000__19_algos/main_HistogramsRegret____env1-1_3533161389089043567__Algo_5_20.png' created of size '107201b', at 'Mon Mar 25 20:47:47 2019' ...
Saving figure with format pdf, to file 'plots/SP__K3_T5000_N1000__19_algos/main_HistogramsRegret____env1-1_3533161389089043567__Algo_5_20.pdf'...
       Saved! 'plots/SP__K3_T5000_N1000__19_algos/main_HistogramsRegret____env1-1_3533161389089043567__Algo_5_20.pdf' created of size '29787b', at 'Mon Mar 25 20:47:47 2019' ...
Saving figure with format png, to file 'plots/SP__K3_T5000_N1000__19_algos/main_HistogramsRegret____env1-1_3533161389089043567__Algo_6_20.png'...
       Saved! 'plots/SP__K3_T5000_N1000__19_algos/main_HistogramsRegret____env1-1_3533161389089043567__Algo_6_20.png' created of size '98193b', at 'Mon Mar 25 20:47:47 2019' ...
Saving figure with format pdf, to file 'plots/SP__K3_T5000_N1000__19_algos/main_HistogramsRegret____env1-1_3533161389089043567__Algo_6_20.pdf'...
       Saved! 'plots/SP__K3_T5000_N1000__19_algos/main_HistogramsRegret____env1-1_3533161389089043567__Algo_6_20.pdf' created of size '28021b', at 'Mon Mar 25 20:47:47 2019' ...
Saving figure with format png, to file 'plots/SP__K3_T5000_N1000__19_algos/main_HistogramsRegret____env1-1_3533161389089043567__Algo_7_20.png'...
       Saved! 'plots/SP__K3_T5000_N1000__19_algos/main_HistogramsRegret____env1-1_3533161389089043567__Algo_7_20.png' created of size '99292b', at 'Mon Mar 25 20:47:48 2019' ...
Saving figure with format pdf, to file 'plots/SP__K3_T5000_N1000__19_algos/main_HistogramsRegret____env1-1_3533161389089043567__Algo_7_20.pdf'...
       Saved! 'plots/SP__K3_T5000_N1000__19_algos/main_HistogramsRegret____env1-1_3533161389089043567__Algo_7_20.pdf' created of size '28996b', at 'Mon Mar 25 20:47:48 2019' ...
Saving figure with format png, to file 'plots/SP__K3_T5000_N1000__19_algos/main_HistogramsRegret____env1-1_3533161389089043567__Algo_8_20.png'...
       Saved! 'plots/SP__K3_T5000_N1000__19_algos/main_HistogramsRegret____env1-1_3533161389089043567__Algo_8_20.png' created of size '112714b', at 'Mon Mar 25 20:47:48 2019' ...
Saving figure with format pdf, to file 'plots/SP__K3_T5000_N1000__19_algos/main_HistogramsRegret____env1-1_3533161389089043567__Algo_8_20.pdf'...
       Saved! 'plots/SP__K3_T5000_N1000__19_algos/main_HistogramsRegret____env1-1_3533161389089043567__Algo_8_20.pdf' created of size '28886b', at 'Mon Mar 25 20:47:48 2019' ...
Saving figure with format png, to file 'plots/SP__K3_T5000_N1000__19_algos/main_HistogramsRegret____env1-1_3533161389089043567__Algo_9_20.png'...
       Saved! 'plots/SP__K3_T5000_N1000__19_algos/main_HistogramsRegret____env1-1_3533161389089043567__Algo_9_20.png' created of size '102140b', at 'Mon Mar 25 20:47:48 2019' ...
Saving figure with format pdf, to file 'plots/SP__K3_T5000_N1000__19_algos/main_HistogramsRegret____env1-1_3533161389089043567__Algo_9_20.pdf'...
       Saved! 'plots/SP__K3_T5000_N1000__19_algos/main_HistogramsRegret____env1-1_3533161389089043567__Algo_9_20.pdf' created of size '28852b', at 'Mon Mar 25 20:47:49 2019' ...
Saving figure with format png, to file 'plots/SP__K3_T5000_N1000__19_algos/main_HistogramsRegret____env1-1_3533161389089043567__Algo_10_20.png'...
       Saved! 'plots/SP__K3_T5000_N1000__19_algos/main_HistogramsRegret____env1-1_3533161389089043567__Algo_10_20.png' created of size '104150b', at 'Mon Mar 25 20:47:49 2019' ...
Saving figure with format pdf, to file 'plots/SP__K3_T5000_N1000__19_algos/main_HistogramsRegret____env1-1_3533161389089043567__Algo_10_20.pdf'...
       Saved! 'plots/SP__K3_T5000_N1000__19_algos/main_HistogramsRegret____env1-1_3533161389089043567__Algo_10_20.pdf' created of size '29700b', at 'Mon Mar 25 20:47:49 2019' ...
Saving figure with format png, to file 'plots/SP__K3_T5000_N1000__19_algos/main_HistogramsRegret____env1-1_3533161389089043567__Algo_11_20.png'...
       Saved! 'plots/SP__K3_T5000_N1000__19_algos/main_HistogramsRegret____env1-1_3533161389089043567__Algo_11_20.png' created of size '97666b', at 'Mon Mar 25 20:47:49 2019' ...
Saving figure with format pdf, to file 'plots/SP__K3_T5000_N1000__19_algos/main_HistogramsRegret____env1-1_3533161389089043567__Algo_11_20.pdf'...
       Saved! 'plots/SP__K3_T5000_N1000__19_algos/main_HistogramsRegret____env1-1_3533161389089043567__Algo_11_20.pdf' created of size '29552b', at 'Mon Mar 25 20:47:49 2019' ...
Saving figure with format png, to file 'plots/SP__K3_T5000_N1000__19_algos/main_HistogramsRegret____env1-1_3533161389089043567__Algo_12_20.png'...
       Saved! 'plots/SP__K3_T5000_N1000__19_algos/main_HistogramsRegret____env1-1_3533161389089043567__Algo_12_20.png' created of size '95808b', at 'Mon Mar 25 20:47:50 2019' ...
Saving figure with format pdf, to file 'plots/SP__K3_T5000_N1000__19_algos/main_HistogramsRegret____env1-1_3533161389089043567__Algo_12_20.pdf'...
       Saved! 'plots/SP__K3_T5000_N1000__19_algos/main_HistogramsRegret____env1-1_3533161389089043567__Algo_12_20.pdf' created of size '28563b', at 'Mon Mar 25 20:47:50 2019' ...
Saving figure with format png, to file 'plots/SP__K3_T5000_N1000__19_algos/main_HistogramsRegret____env1-1_3533161389089043567__Algo_13_20.png'...
       Saved! 'plots/SP__K3_T5000_N1000__19_algos/main_HistogramsRegret____env1-1_3533161389089043567__Algo_13_20.png' created of size '99018b', at 'Mon Mar 25 20:47:50 2019' ...
Saving figure with format pdf, to file 'plots/SP__K3_T5000_N1000__19_algos/main_HistogramsRegret____env1-1_3533161389089043567__Algo_13_20.pdf'...
       Saved! 'plots/SP__K3_T5000_N1000__19_algos/main_HistogramsRegret____env1-1_3533161389089043567__Algo_13_20.pdf' created of size '28150b', at 'Mon Mar 25 20:47:50 2019' ...
Saving figure with format png, to file 'plots/SP__K3_T5000_N1000__19_algos/main_HistogramsRegret____env1-1_3533161389089043567__Algo_14_20.png'...
       Saved! 'plots/SP__K3_T5000_N1000__19_algos/main_HistogramsRegret____env1-1_3533161389089043567__Algo_14_20.png' created of size '100479b', at 'Mon Mar 25 20:47:50 2019' ...
Saving figure with format pdf, to file 'plots/SP__K3_T5000_N1000__19_algos/main_HistogramsRegret____env1-1_3533161389089043567__Algo_14_20.pdf'...
       Saved! 'plots/SP__K3_T5000_N1000__19_algos/main_HistogramsRegret____env1-1_3533161389089043567__Algo_14_20.pdf' created of size '28240b', at 'Mon Mar 25 20:47:50 2019' ...
Saving figure with format png, to file 'plots/SP__K3_T5000_N1000__19_algos/main_HistogramsRegret____env1-1_3533161389089043567__Algo_15_20.png'...
       Saved! 'plots/SP__K3_T5000_N1000__19_algos/main_HistogramsRegret____env1-1_3533161389089043567__Algo_15_20.png' created of size '100039b', at 'Mon Mar 25 20:47:51 2019' ...
Saving figure with format pdf, to file 'plots/SP__K3_T5000_N1000__19_algos/main_HistogramsRegret____env1-1_3533161389089043567__Algo_15_20.pdf'...
       Saved! 'plots/SP__K3_T5000_N1000__19_algos/main_HistogramsRegret____env1-1_3533161389089043567__Algo_15_20.pdf' created of size '27391b', at 'Mon Mar 25 20:47:51 2019' ...
Saving figure with format png, to file 'plots/SP__K3_T5000_N1000__19_algos/main_HistogramsRegret____env1-1_3533161389089043567__Algo_16_20.png'...
       Saved! 'plots/SP__K3_T5000_N1000__19_algos/main_HistogramsRegret____env1-1_3533161389089043567__Algo_16_20.png' created of size '99646b', at 'Mon Mar 25 20:47:51 2019' ...
Saving figure with format pdf, to file 'plots/SP__K3_T5000_N1000__19_algos/main_HistogramsRegret____env1-1_3533161389089043567__Algo_16_20.pdf'...
       Saved! 'plots/SP__K3_T5000_N1000__19_algos/main_HistogramsRegret____env1-1_3533161389089043567__Algo_16_20.pdf' created of size '26962b', at 'Mon Mar 25 20:47:51 2019' ...
Saving figure with format png, to file 'plots/SP__K3_T5000_N1000__19_algos/main_HistogramsRegret____env1-1_3533161389089043567__Algo_17_20.png'...
       Saved! 'plots/SP__K3_T5000_N1000__19_algos/main_HistogramsRegret____env1-1_3533161389089043567__Algo_17_20.png' created of size '104696b', at 'Mon Mar 25 20:47:51 2019' ...
Saving figure with format pdf, to file 'plots/SP__K3_T5000_N1000__19_algos/main_HistogramsRegret____env1-1_3533161389089043567__Algo_17_20.pdf'...
       Saved! 'plots/SP__K3_T5000_N1000__19_algos/main_HistogramsRegret____env1-1_3533161389089043567__Algo_17_20.pdf' created of size '27669b', at 'Mon Mar 25 20:47:51 2019' ...
Saving figure with format png, to file 'plots/SP__K3_T5000_N1000__19_algos/main_HistogramsRegret____env1-1_3533161389089043567__Algo_18_20.png'...
       Saved! 'plots/SP__K3_T5000_N1000__19_algos/main_HistogramsRegret____env1-1_3533161389089043567__Algo_18_20.png' created of size '100797b', at 'Mon Mar 25 20:47:52 2019' ...
Saving figure with format pdf, to file 'plots/SP__K3_T5000_N1000__19_algos/main_HistogramsRegret____env1-1_3533161389089043567__Algo_18_20.pdf'...
       Saved! 'plots/SP__K3_T5000_N1000__19_algos/main_HistogramsRegret____env1-1_3533161389089043567__Algo_18_20.pdf' created of size '28488b', at 'Mon Mar 25 20:47:52 2019' ...
Saving figure with format png, to file 'plots/SP__K3_T5000_N1000__19_algos/main_HistogramsRegret____env1-1_3533161389089043567__Algo_19_20.png'...
       Saved! 'plots/SP__K3_T5000_N1000__19_algos/main_HistogramsRegret____env1-1_3533161389089043567__Algo_19_20.png' created of size '100640b', at 'Mon Mar 25 20:47:52 2019' ...
Saving figure with format pdf, to file 'plots/SP__K3_T5000_N1000__19_algos/main_HistogramsRegret____env1-1_3533161389089043567__Algo_19_20.pdf'...
       Saved! 'plots/SP__K3_T5000_N1000__19_algos/main_HistogramsRegret____env1-1_3533161389089043567__Algo_19_20.pdf' created of size '27836b', at 'Mon Mar 25 20:47:52 2019' ...


==> To see the figures, do :
eog plots/SP__K3_T5000_N1000__19_algos/main*3533161389089043567.png
Done for simulations main.py ...
